{
	"components": [
		{
			"label": "Columns",
			"columns": [
				{
					"components": [
						{
							"label": "CoursesLocal.LastName",
							"key": "familyName",
							"type": "textfield",
							"input": true
						}
					],
					"width": 4
				},
				{
					"components": [
						{
							"label": "CoursesLocal.StudentIdentifier",
							"key": "studentIdentifier",
							"type": "textfield",
							"input": true
						}
					],
					"width": 4
				},
				{
					"components": [
						{
							"label": "CoursesLocal.StudentStatus",
							"widget": "choicesjs",
							"dataSrc": "url",
							"data": {
								"url": "StudentStatuses?$orderby=name",
								"headers": []
							},
							"selectThreshold": 0.3,
							"validate": {
								"unique": false,
								"multiple": false
							},
							"template": "<span class='d-block pr-5 text-truncate'>{{ item.name }}</span>",
							"key": "studentStatus",
							"valueProperty": "alternateName",
							"selectValues": "value",
							"type": "select",
							"input": true,
							"hideOnChildrenHidden": false,
							"disableLimit": false,
							"lazyLoad": false
						}
					],
					"width": 4
				}
			],
			"tableView": false,
			"type": "columns",
			"input": false,
			"path": "columns"
		},
		{
			"label": "Columns",
			"columns": [
				{
					"components": [
						{
							"label": "CoursesLocal.GradeStatusTitle",
							"widget": "choicesjs",
							"dataSrc": "url",
							"data": {
								"url": "GradeStatuses?$top=-1",
								"headers": []
							},
							"selectThreshold": 0.3,
							"template": "<span class='d-block pr-5 text-truncate'>{{ item.name }}</span>",
							"key": "gradeStatus",
							"valueProperty": "alternateName",
							"selectValues": "value",
							"type": "select",
							"input": true,
							"hideOnChildrenHidden": false,
							"disableLimit": false,
							"lazyLoad": true
						}
					],
					"width": 4
				},
				{
					"components": [
						{
							"label": "CoursesLocal.Chart.Graded",
							"widget": "choicesjs",
							"tableView": true,
							"data": {
								"values": [
									{
										"label": "Yes",
										"value": "true"
									},
									{
										"label": "No",
										"value": "false"
									}
								]
							},
							"key": "formattedGrade",
							"type": "select",
							"input": true
						}
					],
					"width": 4
				},
				{
					"components": [
						{
							"label": "CoursesLocal.Successful",
							"widget": "choicesjs",
							"tableView": true,
							"data": {
								"values": [
									{
										"label": "Yes",
										"value": "1"
									},
									{
										"label": "No",
										"value": "0"
									}
								]
							},
							"dataType": "string",
							"key": "passed",
							"type": "select",
							"input": true
						}
					],
					"width": 4
				}
			],
			"tableView": false,
			"type": "columns",
			"input": false,
			"path": "columns"
		}
	]
}
